…
Encodes a string column of labels to a column of label indices

ft_vector_assembler

Combines a given list of columns into a single vector column

Examples

We will use the iris data set to examine a handful of learning algorithms and transformers. The iris data set measures attributes for 150 flowers in 3 different species of iris.

iris_tbl <- copy_to(sc, iris, "iris", overwrite = TRUE)
iris_tbl

## Source:   query [150 x 5]
## Database: spark connection master=local[8] app=sparklyr local=TRUE
## 
##    Sepal_Length Sepal_Width Petal_Length Petal_Width Species
##           <dbl>       <dbl>        <dbl>       <dbl>   <chr>
## 1           5.1         3.5          1.4         0.2  setosa
## 2           4.9         3.0          1.4         0.2  setosa
## 3           4.7         3.2          1.3         0.2  setosa
## 4           4.6         3.1          1.5         0.2  setosa
## 5           5.0         3.6          1.4         0.2  setosa
## 6           5.4         3.9          1.7         0.4  setosa
## 7           4.6         3.4          1.4         0.3  setosa
## 8           5.0         3.4          1.5         0.2  setosa
## 9           4.4         2.9          1.4         0.2  setosa
## 10          4.9         3.1          1.5         0.1  setosa
## # ... with 140 more rows
…
