sparklyr - Spark ML – Latent Dirichlet Allocation
…
lda_model <- lines_tbl_tidy %>% 
  ml_lda(~text, k = 4) 
 
# vocabulary and topics 
tidy(lda_model) 
#> New names:
#> • `` -> `...1`
#> • `` -> `...2`
#> • `` -> `...3`
#> • `` -> `...4`
#> # A tibble: 388 × 3
#>    topic term      beta
#>    <int> <chr>    <dbl>
#>  1     0 norland  0.607
#>  2     0 years    0.663
#>  3     0 lived    2.07 
#>  4     0 estate   0.615
#>  5     0 constant 0.703
#>  6     0 henry    1.96 
#>  7     0 many     0.600
#>  8     0 family   1.54 
#>  9     0 dashwood 0.585
#> 10     0 nephew   0.721
#> # … with 378 more rows
…
